Project 2
…
print(summary_counts)

# A tibble: 4 × 3
  race      year   total
  <chr>    <dbl>   <dbl>
1 Chinese   2023    7674
2 Chinese   2011 3361879
3 Filipino  2023  262269
4 Filipino  2011 2538325

The graph shows the number of Filipinos and Chinese in 2011 and 2023 respectively. The 2023 data pull is obviously inaccurate, I am unsure why, even after observing the data table. Attempting to use 2024 data resulted in same findings.

print(count_2023)

# A tibble: 34 × 5
   GEOID NAME          variable   estimate   moe
   <chr> <chr>         <chr>         <dbl> <dbl>
 1 1     United States B02015_001 20052323 46718
 2 1     United States B02015_002  4228441 52414
 3 1     United States B02015_003   337925 15696
 4 1     United States B02015_004   725773 18935
 5 1     United States B02015_005  1466761 36764
 6 1     United States B02015_006    39237  7560
 7 1     United States B02015_007     7674  1822
 8 1     United States B02015_008   262269 13020
 9 1     United States B02015_009     1170  1408
10 1     United States B02015_010   220379 14764
# ℹ 24 more rows
…
